﻿{
  "profiles": {
    "Api": {
      "commandName": "Project",
      "launchUrl": "swagger/index.html",
      "launchBrowser": true,
      "applicationUrl": "https://localhost:5000;",
      "environmentVariables": {
        "ASPNETCORE_ENVIRONMENT": "Development",
        "RedisOptions__ConnectionString": "localhost:6379",
        "RedisOptions__InstanceName": "my-redis-container",
        "IdentityUserRateLimitOptions__TokenLimit": "100",
        "IdentityUserRateLimitOptions__QueueLimit": "100",
        "IdentityUserRateLimitOptions__ReplenishmentPeriodInSeconds": "5",
        "IdentityUserRateLimitOptions__TokensPerPeriod": "10",
        "AnonymousRateLimitOptions__TokenLimit": "50",
        "AnonymousRateLimitOptions__QueueLimit": "50",
        "AnonymousRateLimitOptions__ReplenishmentPeriodInSeconds": "5",
        "AnonymousRateLimitOptions__TokensPerPeriod": "5"
      }
    }
  }
}
